{
    "921600" : {"baudrate": 921600, "decimation":  1,  "data_types": ["Temp"]},
    "460800a" : {"baudrate": 460800, "decimation":  1,  "data_types": ["Gyro", "Accel", "DeltaTheta", "Temp"]},
    "460800b" : {"baudrate": 460800, "decimation":  5,  "data_types": ["Gyro", "Accel", "DeltaTheta","Gyro", "Accel", "DeltaTheta","Gyro", "Accel", "DeltaTheta","Gyro", "Accel", "DeltaTheta","Gyro", "Accel", "DeltaTheta","Gyro", "Accel",  "Temp"]},
    "230400" : {"baudrate": 230400, "decimation":  4,  "data_types": ["Gyro", "Accel", "Temp"]},
    "115200" : {"baudrate": 115200, "decimation":  5,  "data_types": ["Gyro", "Accel", "Temp"]},
    "57600"  : {"baudrate": 57600,  "decimation": 10,  "data_types": ["Gyro", "Accel", "Temp"]},
    "19200"  : {"baudrate": 19200,  "decimation": 20,  "data_types": ["Gyro", "Accel", "Temp"]},
    "9600a"   : {"baudrate": 9600,   "decimation": 10,  "data_types": [ "Temp"]},
    "9600b" : {"baudrate": 9600, "decimation":  400,  "data_types": ["Gyro", "Accel", "DeltaTheta","Gyro", "Accel", "DeltaTheta","Gyro", "Accel", "DeltaTheta","Gyro", "Accel", "DeltaTheta","Gyro", "Accel", "DeltaTheta","Gyro", "Accel",  "Temp"]},

    "9600_max_prod_packet"     : {"baudrate": 9600,     "decimation": 81,  "data_types": [ "TimeStamp", "Gyro", "Accel", "Mag", "DeltaTheta", "DeltaVelocity", "Temp"]},
    "19200_max_prod_packet"    : {"baudrate": 19200,    "decimation": 41,  "data_types": [ "TimeStamp", "Gyro", "Accel", "Mag", "DeltaTheta", "DeltaVelocity", "Temp"]},
    "57600_max_prod_packet"    : {"baudrate": 57600,    "decimation": 14,  "data_types": [ "TimeStamp", "Gyro", "Accel", "Mag", "DeltaTheta", "DeltaVelocity", "Temp"]},
    "115200_max_prod_packet"   : {"baudrate": 115200,   "decimation": 7,   "data_types": [ "TimeStamp", "Gyro", "Accel", "Mag", "DeltaTheta", "DeltaVelocity", "Temp"]},
    "230400_max_prod_packet"   : {"baudrate": 230400,   "decimation": 4,   "data_types": [ "TimeStamp", "Gyro", "Accel", "Mag", "DeltaTheta", "DeltaVelocity", "Temp"]},
    "460800_max_prod_packet"   : {"baudrate": 460800,   "decimation": 2,   "data_types": [ "TimeStamp", "Gyro", "Accel", "Mag", "DeltaTheta", "DeltaVelocity", "Temp"]},
    "921600_max_prod_packet"   : {"baudrate": 921600,   "decimation": 1,   "data_types": [ "TimeStamp", "Gyro", "Accel", "Mag", "DeltaTheta", "DeltaVelocity", "Temp"]}
}